<svg width="20" height="13" viewBox="0 0 20 13" fill="none" xmlns="http://www.w3.org/2000/svg">
<path d="M10 9.28557C11.5061 9.28557 12.7271 8.03847 12.7271 6.50009C12.7271 4.9617 11.5061 3.7146 10 3.7146C8.49386 3.7146 7.27289 4.9617 7.27289 6.50009C7.27289 8.03847 8.49386 9.28557 10 9.28557Z" fill="black"/>
<path d="M10 0C4.54533 0 0 6.0356 0 6.5C0 6.96394 4.54533 13 10 13C15.4544 13 20 6.9644 20 6.5C20 6.03537 15.4547 0 10 0ZM10 11.1426C7.48889 11.1426 5.45467 9.06441 5.45467 6.5C5.45467 3.93491 7.48889 1.85737 10 1.85737C12.5109 1.85737 14.5453 3.93491 14.5453 6.5C14.5453 9.06441 12.5109 11.1426 10 11.1426Z" fill="black"/>
</svg>
