<svg width="20" height="20" viewBox="0 0 20 20" fill="none" xmlns="http://www.w3.org/2000/svg">
<path d="M10 13C11.6569 13 13 11.6569 13 10C13 8.34315 11.6569 7 10 7C8.34315 7 7 8.34315 7 10C7 11.6569 8.34315 13 10 13Z" fill="black"/>
<path d="M19 9H17.9C17.4 5.4 14.6 2.5 11 2.1V1C11 0.5 10.5 0 10 0C9.5 0 9 0.5 9 1V2.1C5.4 2.5 2.5 5.4 2.1 9H1C0.5 9 0 9.5 0 10C0 10.5 0.5 11 1 11H2.1C2.6 14.6 5.4 17.5 9 17.9V19C9 19.5 9.5 20 10 20C10.5 20 11 19.5 11 19V17.9C14.6 17.4 17.5 14.6 17.9 11H19C19.5 11 20 10.5 20 10C20 9.5 19.5 9 19 9ZM10 16C6.7 16 4 13.3 4 10C4 6.7 6.7 4 10 4C13.3 4 16 6.7 16 10C16 13.3 13.3 16 10 16Z" fill="black"/>
</svg>
