<svg width="50" height="50" viewBox="0 0 50 50" fill="none" xmlns="http://www.w3.org/2000/svg">
<path fill-rule="evenodd" clip-rule="evenodd" d="M25.0675 49.3081C11.4811 49.3081 0.611938 38.4486 0.611938 24.8742C0.611938 11.2997 11.4811 0.440186 25.0675 0.440186C38.6539 0.440186 49.523 11.2997 49.523 24.8742C49.523 38.4486 38.3822 49.3081 25.0675 49.3081ZM25.0675 5.86996C14.4701 5.86996 6.04651 14.2861 6.04651 24.8742C6.04651 35.4622 14.4701 43.8783 25.0675 43.8783C35.6649 43.8783 44.0885 35.4622 44.0885 24.8742C44.0885 14.2861 35.3932 5.86996 25.0675 5.86996ZM23.3666 27.2471C22.5616 26.8046 22.0786 25.9601 22.0786 24.8742V14.0147C22.0786 12.3858 23.1655 11.2998 24.7959 11.2998C26.4262 11.2998 27.5131 12.3858 27.5131 14.0147V23.7883L34.5781 30.847C35.665 31.933 35.665 33.5619 34.5781 34.6479C34.0346 35.1908 33.4912 35.4623 32.676 35.4623C31.8608 35.4623 31.3174 35.1908 30.7739 34.6479L23.3666 27.2471Z" fill="black"/>
</svg>
