<svg width="15" height="13" viewBox="0 0 15 13" fill="none" xmlns="http://www.w3.org/2000/svg">
<path fill-rule="evenodd" clip-rule="evenodd" d="M8.35523 6.32573L11.6774 9.64789L15 6.32573L13.6242 4.94927L12.6322 5.94174C12.4315 2.63236 9.68403 0 6.32527 0C2.83737 0 0 2.83783 0 6.32573C0 9.81348 2.83752 12.651 6.32527 12.651H8.75792V10.7045H6.32527C3.91006 10.7045 1.94631 8.74032 1.94631 6.32573C1.94631 3.91037 3.91006 1.94615 6.32527 1.94615C8.58734 1.94615 10.431 3.67484 10.6591 5.87693L9.73123 4.94927L8.35523 6.32573Z" fill="#9B9B9B"/>
</svg>
